{
  "project_info": {
    "project_number": "1051574955177",
    "project_id": "qr-code-f63b6",
    "storage_bucket": "qr-code-f63b6.appspot.com"
  },
  "client": [
    {
      "client_info": {
        "mobilesdk_app_id": "1:1051574955177:android:8468a70be23bd21b0d0db8",
        "android_client_info": {
          "package_name": "com.sutech.qrcode.barcode.scanner"
        }
      },
      "oauth_client": [
        {
          "client_id": "1051574955177-99hbpcjf7rhdk30hun1uqk9dq7hh42u7.apps.googleusercontent.com",
          "client_type": 3
        }
      ],
      "api_key": [
        {
          "current_key": "AIzaSyApCB7rdofdI0TBxQC7YPHcgWdlgm8GJeA"
        }
      ],
      "services": {
        "appinvite_service": {
          "other_platform_oauth_client": [
            {
              "client_id": "1051574955177-99hbpcjf7rhdk30hun1uqk9dq7hh42u7.apps.googleusercontent.com",
              "client_type": 3
            }
          ]
        }
      }
    }
  ],
  "configuration_version": "1"
}